# Wavefront OBJ file generated by LithUnwrap
# num_vertices: 168
# num_uvs: 324
# num_faces: 108
# num_groups: 1

v -36.071442 28.185738 0.780207
v -36.071442 22.757168 0.780207
v 36.357140 28.185738 0.780207
v 36.357140 22.757168 0.780207
v 36.357140 28.185738 -0.780207
v 36.357140 22.757168 -0.780207
v -36.071442 28.185738 -0.780207
v -36.071442 22.757168 -0.780207
v 32.394524 30.174381 4.799999
v 36.625381 0.070229 12.200001
v 31.386967 30.032784 4.799999
v 35.617828 -0.071375 12.200001
v 31.386967 30.032784 4.799999
v 35.617828 -0.071375 12.200001
v 31.386967 30.032784 1.200000
v 35.617828 -0.071375 8.600001
v 31.386967 30.032784 1.200000
v 35.617828 -0.071375 8.600001
v 32.394524 30.174381 1.200000
v 36.625381 0.070229 8.600001
v 32.394524 30.174381 1.200000
v 36.625381 0.070229 8.600001
v 32.394524 30.174381 4.799999
v 36.625381 0.070229 12.200001
v 32.394524 30.174381 4.799999
v 31.386967 30.032784 4.799999
v 36.625381 0.070229 12.200001
v 35.617828 -0.071375 12.200001
v 31.386967 30.032784 -4.799999
v 36.625381 0.070229 -12.200001
v 32.394524 30.174381 -4.799999
v 35.617828 -0.071375 -12.200001
v 31.386967 30.032784 -1.200000
v 35.617828 -0.071375 -12.200001
v 31.386967 30.032784 -4.799999
v 35.617828 -0.071375 -8.600001
v 32.394524 30.174381 -1.200000
v 35.617828 -0.071375 -8.600001
v 31.386967 30.032784 -1.200000
v 36.625381 0.070229 -8.600001
v 32.394524 30.174381 -4.799999
v 36.625381 0.070229 -8.600001
v 32.394524 30.174381 -1.200000
v 36.625381 0.070229 -12.200001
v 32.394524 30.174381 -4.799999
v 31.386967 30.032784 -4.799999
v 35.617828 -0.071375 -12.200001
v 36.625381 0.070229 -12.200001
v 35.421600 14.846495 8.526304
v 35.978298 10.885425 8.526304
v 34.484566 14.714800 8.526304
v 35.041264 10.753732 8.526304
v 34.484566 14.714800 8.526304
v 35.041264 10.753732 8.526304
v 34.484566 14.714800 -8.526304
v 35.041264 10.753732 -8.526304
v 34.484566 14.714800 -8.526304
v 35.041264 10.753732 -8.526304
v 35.421600 14.846495 -8.526304
v 35.978298 10.885425 -8.526304
v 35.421600 14.846495 -8.526304
v 35.978298 10.885425 -8.526304
v 35.421600 14.846495 8.526304
v 35.978298 10.885425 8.526304
v 35.421600 14.846495 8.526304
v 34.484566 14.714800 8.526304
v 35.978298 10.885425 8.526304
v 35.041264 10.753732 8.526304
v 33.946365 25.343342 5.214071
v 34.503063 21.382263 5.214071
v 33.009327 25.211647 5.214071
v 33.566021 21.250576 5.214071
v 33.009327 25.211647 5.214071
v 33.566021 21.250576 5.214071
v 33.009327 25.211647 -5.057953
v 33.566021 21.250576 -5.057953
v 33.009327 25.211647 -5.057953
v 33.566021 21.250576 -5.057953
v 33.946365 25.343342 -5.057953
v 34.503063 21.382263 -5.057953
v 33.946365 25.343342 -5.057953
v 34.503063 21.382263 -5.057953
v 33.946365 25.343342 5.214071
v 34.503063 21.382263 5.214071
v 33.946365 25.343342 5.214071
v 33.009327 25.211647 5.214071
v 34.503063 21.382263 5.214071
v 33.566021 21.250576 5.214071
v -32.394524 30.174381 4.799999
v -36.625381 0.070229 12.200001
v -31.386967 30.032784 4.799999
v -35.617828 -0.071375 12.200001
v -31.386967 30.032784 4.799999
v -35.617828 -0.071375 12.200001
v -31.386967 30.032784 1.200000
v -35.617828 -0.071375 8.600001
v -31.386967 30.032784 1.200000
v -35.617828 -0.071375 8.600001
v -32.394524 30.174381 1.200000
v -36.625381 0.070229 8.600001
v -32.394524 30.174381 1.200000
v -36.625381 0.070229 8.600001
v -32.394524 30.174381 4.799999
v -36.625381 0.070229 12.200001
v -32.394524 30.174381 4.799999
v -31.386967 30.032784 4.799999
v -36.625381 0.070229 12.200001
v -35.617828 -0.071375 12.200001
v -31.386967 30.032784 -4.799999
v -36.625381 0.070229 -12.200001
v -32.394524 30.174381 -4.799999
v -35.617828 -0.071375 -12.200001
v -31.386967 30.032784 -1.200000
v -35.617828 -0.071375 -12.200001
v -31.386967 30.032784 -4.799999
v -35.617828 -0.071375 -8.600001
v -32.394524 30.174381 -1.200000
v -35.617828 -0.071375 -8.600001
v -31.386967 30.032784 -1.200000
v -36.625381 0.070229 -8.600001
v -32.394524 30.174381 -4.799999
v -36.625381 0.070229 -8.600001
v -32.394524 30.174381 -1.200000
v -36.625381 0.070229 -12.200001
v -32.394524 30.174381 -4.799999
v -31.386967 30.032784 -4.799999
v -35.617828 -0.071375 -12.200001
v -36.625381 0.070229 -12.200001
v -35.421600 14.846495 8.526304
v -35.978298 10.885425 8.526304
v -34.484566 14.714800 8.526304
v -35.041264 10.753732 8.526304
v -34.484566 14.714800 8.526304
v -35.041264 10.753732 8.526304
v -34.484566 14.714800 -8.526304
v -35.041264 10.753732 -8.526304
v -34.484566 14.714800 -8.526304
v -35.041264 10.753732 -8.526304
v -35.421600 14.846495 -8.526304
v -35.978298 10.885425 -8.526304
v -35.421600 14.846495 -8.526304
v -35.978298 10.885425 -8.526304
v -35.421600 14.846495 8.526304
v -35.978298 10.885425 8.526304
v -35.421600 14.846495 8.526304
v -34.484566 14.714800 8.526304
v -35.978298 10.885425 8.526304
v -35.041264 10.753732 8.526304
v -33.946365 25.343342 5.214071
v -34.503063 21.382263 5.214071
v -33.009327 25.211647 5.214071
v -33.566021 21.250576 5.214071
v -33.009327 25.211647 5.214071
v -33.566021 21.250576 5.214071
v -33.009327 25.211647 -5.057953
v -33.566021 21.250576 -5.057953
v -33.009327 25.211647 -5.057953
v -33.566021 21.250576 -5.057953
v -33.946365 25.343342 -5.057953
v -34.503063 21.382263 -5.057953
v -33.946365 25.343342 -5.057953
v -34.503063 21.382263 -5.057953
v -33.946365 25.343342 5.214071
v -34.503063 21.382263 5.214071
v -33.946365 25.343342 5.214071
v -33.009327 25.211647 5.214071
v -34.503063 21.382263 5.214071
v -33.566021 21.250576 5.214071
# num_vertices: 168

vt 0.830625 -0.000722
vt 0.681754 -0.000722
vt 0.830625 0.992403
vt 0.681754 -0.000722
vt 0.681754 0.992403
vt 0.830625 0.992403
vt 0.395050 0.953140
vt 0.395050 0.903878
vt 0.423371 0.953140
vt 0.395050 0.903878
vt 0.423371 0.903878
vt 0.423371 0.953140
vt 0.643124 -0.000722
vt 0.494253 -0.000722
vt 0.643124 0.992403
vt 0.494253 -0.000722
vt 0.494253 0.992403
vt 0.643124 0.992403
vt 0.395466 0.953027
vt 0.395466 0.903765
vt 0.423787 0.953027
vt 0.395466 0.903765
vt 0.423787 0.903765
vt 0.423787 0.953027
vt 0.026656 0.864270
vt 0.009675 0.864270
vt 0.026656 0.470173
vt 0.009675 0.864270
vt 0.009675 0.470173
vt 0.026656 0.470173
vt 0.024296 0.862606
vt 0.007314 0.862606
vt 0.024296 0.468509
vt 0.007314 0.862606
vt 0.007314 0.468509
vt 0.024296 0.468509
vt 0.041221 0.874372
vt 0.009721 0.403784
vt 0.009721 0.874372
vt 0.041221 0.874372
vt 0.041221 0.403784
vt 0.009721 0.403784
vt 0.004721 0.988886
vt 0.345278 0.518299
vt 0.116175 0.988886
vt 0.004721 0.988886
vt 0.233822 0.518299
vt 0.345278 0.518299
vt 0.041221 0.874078
vt 0.009721 0.403490
vt 0.009721 0.874078
vt 0.041221 0.874078
vt 0.041221 0.403490
vt 0.009721 0.403490
vt 0.244847 0.989180
vt 0.362494 0.518592
vt 0.133392 0.989180
vt 0.244847 0.989180
vt 0.473949 0.518592
vt 0.362494 0.518592
vt 0.427847 0.967391
vt 0.388601 0.897960
vt 0.388601 0.967391
vt 0.427847 0.967391
vt 0.427847 0.897960
vt 0.388601 0.897960
vt 0.437831 0.963929
vt 0.398584 0.894497
vt 0.398584 0.963929
vt 0.437831 0.963929
vt 0.437831 0.894497
vt 0.398584 0.894497
vt 0.041221 0.874078
vt 0.041221 0.403490
vt 0.009721 0.874078
vt 0.041221 0.403490
vt 0.009721 0.403490
vt 0.009721 0.874078
vt 0.244847 0.988886
vt 0.473949 0.518299
vt 0.133392 0.988886
vt 0.473949 0.518299
vt 0.362494 0.518299
vt 0.133392 0.988886
vt 0.041221 0.874372
vt 0.041221 0.403784
vt 0.009721 0.874372
vt 0.041221 0.403784
vt 0.009721 0.403784
vt 0.009721 0.874372
vt 0.004721 0.989180
vt 0.233823 0.518592
vt 0.116176 0.989180
vt 0.233823 0.518592
vt 0.345278 0.518592
vt 0.116176 0.989180
vt 0.401912 0.897206
vt 0.401912 0.966637
vt 0.441158 0.897206
vt 0.401912 0.966637
vt 0.441158 0.966637
vt 0.441158 0.897206
vt 0.395257 0.896003
vt 0.395257 0.965434
vt 0.434503 0.896003
vt 0.395257 0.965434
vt 0.434503 0.965434
vt 0.434503 0.896003
vt 0.194100 0.267617
vt 0.082776 0.502912
vt 0.082776 0.267617
vt 0.194100 0.267617
vt 0.194100 0.502912
vt 0.082776 0.502912
vt 0.329045 0.266282
vt 0.218660 0.501576
vt 0.329045 0.501576
vt 0.329045 0.266282
vt 0.218660 0.266282
vt 0.218660 0.501576
vt 0.194100 0.502765
vt 0.082777 0.267471
vt 0.082777 0.502765
vt 0.194100 0.502765
vt 0.194100 0.267471
vt 0.082777 0.267471
vt 0.218953 0.266282
vt 0.329338 0.501576
vt 0.218953 0.501576
vt 0.218953 0.266282
vt 0.329338 0.266282
vt 0.329338 0.501576
vt 0.110476 0.267617
vt 0.084363 0.502912
vt 0.084363 0.267617
vt 0.110476 0.267617
vt 0.110476 0.502912
vt 0.084363 0.502912
vt 0.110476 0.502765
vt 0.084363 0.267471
vt 0.084363 0.502765
vt 0.110476 0.502765
vt 0.110476 0.267471
vt 0.084363 0.267471
vt 0.194100 0.267617
vt 0.082776 0.502912
vt 0.082776 0.267617
vt 0.194100 0.267617
vt 0.194100 0.502912
vt 0.082776 0.502912
vt 0.329045 0.266282
vt 0.218660 0.501576
vt 0.329045 0.501576
vt 0.329045 0.266282
vt 0.218660 0.266282
vt 0.218660 0.501576
vt 0.194100 0.502765
vt 0.082777 0.267471
vt 0.082777 0.502765
vt 0.194100 0.502765
vt 0.194100 0.267471
vt 0.082777 0.267471
vt 0.218953 0.266282
vt 0.329338 0.501576
vt 0.218953 0.501576
vt 0.218953 0.266282
vt 0.329338 0.266282
vt 0.329338 0.501576
vt 0.110476 0.267617
vt 0.084363 0.502912
vt 0.084363 0.267617
vt 0.110476 0.267617
vt 0.110476 0.502912
vt 0.084363 0.502912
vt 0.110476 0.502765
vt 0.084363 0.267471
vt 0.084363 0.502765
vt 0.110476 0.502765
vt 0.110476 0.267471
vt 0.084363 0.267471
vt 0.009721 0.874372
vt 0.009721 0.403784
vt 0.041221 0.874372
vt 0.009721 0.403784
vt 0.041221 0.403784
vt 0.041221 0.874372
vt 0.116175 0.988886
vt 0.345278 0.518299
vt 0.004721 0.988886
vt 0.345278 0.518299
vt 0.233822 0.518299
vt 0.004721 0.988886
vt 0.009721 0.874078
vt 0.009721 0.403490
vt 0.041221 0.874078
vt 0.009721 0.403490
vt 0.041221 0.403490
vt 0.041221 0.874078
vt 0.133392 0.989180
vt 0.362494 0.518592
vt 0.244847 0.989180
vt 0.362494 0.518592
vt 0.473949 0.518592
vt 0.244847 0.989180
vt 0.388601 0.967391
vt 0.388601 0.897960
vt 0.427847 0.967391
vt 0.388601 0.897960
vt 0.427847 0.897960
vt 0.427847 0.967391
vt 0.398584 0.963929
vt 0.398584 0.894497
vt 0.437831 0.963929
vt 0.398584 0.894497
vt 0.437831 0.894497
vt 0.437831 0.963929
vt 0.009721 0.874078
vt 0.041221 0.403490
vt 0.041221 0.874078
vt 0.009721 0.874078
vt 0.009721 0.403490
vt 0.041221 0.403490
vt 0.133392 0.988886
vt 0.473949 0.518299
vt 0.244847 0.988886
vt 0.133392 0.988886
vt 0.362494 0.518299
vt 0.473949 0.518299
vt 0.009721 0.874372
vt 0.041221 0.403784
vt 0.041221 0.874372
vt 0.009721 0.874372
vt 0.009721 0.403784
vt 0.041221 0.403784
vt 0.116176 0.989180
vt 0.233823 0.518592
vt 0.004721 0.989180
vt 0.116176 0.989180
vt 0.345278 0.518592
vt 0.233823 0.518592
vt 0.441158 0.897206
vt 0.401912 0.966637
vt 0.401912 0.897206
vt 0.441158 0.897206
vt 0.441158 0.966637
vt 0.401912 0.966637
vt 0.434503 0.896003
vt 0.395257 0.965434
vt 0.395257 0.896003
vt 0.434503 0.896003
vt 0.434503 0.965434
vt 0.395257 0.965434
vt 0.082776 0.267617
vt 0.082776 0.502912
vt 0.194100 0.267617
vt 0.082776 0.502912
vt 0.194100 0.502912
vt 0.194100 0.267617
vt 0.329045 0.501576
vt 0.218660 0.501576
vt 0.329045 0.266282
vt 0.218660 0.501576
vt 0.218660 0.266282
vt 0.329045 0.266282
vt 0.082777 0.502765
vt 0.082777 0.267471
vt 0.194100 0.502765
vt 0.082777 0.267471
vt 0.194100 0.267471
vt 0.194100 0.502765
vt 0.218953 0.501576
vt 0.329338 0.501576
vt 0.218953 0.266282
vt 0.329338 0.501576
vt 0.329338 0.266282
vt 0.218953 0.266282
vt 0.084363 0.267617
vt 0.084363 0.502912
vt 0.110476 0.267617
vt 0.084363 0.502912
vt 0.110476 0.502912
vt 0.110476 0.267617
vt 0.084363 0.502765
vt 0.084363 0.267471
vt 0.110476 0.502765
vt 0.084363 0.267471
vt 0.110476 0.267471
vt 0.110476 0.502765
vt 0.082776 0.267617
vt 0.082776 0.502912
vt 0.194100 0.267617
vt 0.082776 0.502912
vt 0.194100 0.502912
vt 0.194100 0.267617
vt 0.329045 0.501576
vt 0.218660 0.501576
vt 0.329045 0.266282
vt 0.218660 0.501576
vt 0.218660 0.266282
vt 0.329045 0.266282
vt 0.082777 0.502765
vt 0.082777 0.267471
vt 0.194100 0.502765
vt 0.082777 0.267471
vt 0.194100 0.267471
vt 0.194100 0.502765
vt 0.218953 0.501576
vt 0.329338 0.501576
vt 0.218953 0.266282
vt 0.329338 0.501576
vt 0.329338 0.266282
vt 0.218953 0.266282
vt 0.084363 0.267617
vt 0.084363 0.502912
vt 0.110476 0.267617
vt 0.084363 0.502912
vt 0.110476 0.502912
vt 0.110476 0.267617
vt 0.084363 0.502765
vt 0.084363 0.267471
vt 0.110476 0.502765
vt 0.084363 0.267471
vt 0.110476 0.267471
vt 0.110476 0.502765
# num_uvs: 324

g sawh

f 1/1 2/2 3/3 
f 2/4 4/5 3/6 
f 3/7 4/8 5/9 
f 4/10 6/11 5/12 
f 5/13 6/14 7/15 
f 6/16 8/17 7/18 
f 7/19 8/20 1/21 
f 8/22 2/23 1/24 
f 7/25 1/26 5/27 
f 1/28 3/29 5/30 
f 2/31 8/32 4/33 
f 8/34 6/35 4/36 
f 11/37 10/38 9/39 
f 11/40 12/41 10/42 
f 15/43 14/44 13/45 
f 15/46 16/47 14/48 
f 19/49 18/50 17/51 
f 19/52 20/53 18/54 
f 23/55 22/56 21/57 
f 23/58 24/59 22/60 
f 15/61 25/62 21/63 
f 15/64 26/65 25/66 
f 28/67 22/68 27/69 
f 28/70 16/71 22/72 
f 31/73 30/74 29/75 
f 30/76 32/77 29/78 
f 35/79 34/80 33/81 
f 34/82 36/83 33/84 
f 39/85 38/86 37/87 
f 38/88 40/89 37/90 
f 43/91 42/92 41/93 
f 42/94 44/95 41/96 
f 43/97 45/98 33/99 
f 45/100 46/101 33/102 
f 48/103 42/104 47/105 
f 42/106 36/107 47/108 
f 51/109 50/110 49/111 
f 51/112 52/113 50/114 
f 55/115 54/116 53/117 
f 55/118 56/119 54/120 
f 59/121 58/122 57/123 
f 59/124 60/125 58/126 
f 63/127 62/128 61/129 
f 63/130 64/131 62/132 
f 55/133 65/134 61/135 
f 55/136 66/137 65/138 
f 68/139 62/140 67/141 
f 68/142 56/143 62/144 
f 71/145 70/146 69/147 
f 71/148 72/149 70/150 
f 75/151 74/152 73/153 
f 75/154 76/155 74/156 
f 79/157 78/158 77/159 
f 79/160 80/161 78/162 
f 83/163 82/164 81/165 
f 83/166 84/167 82/168 
f 75/169 85/170 81/171 
f 75/172 86/173 85/174 
f 88/175 82/176 87/177 
f 88/178 76/179 82/180 
f 89/181 90/182 91/183 
f 90/184 92/185 91/186 
f 93/187 94/188 95/189 
f 94/190 96/191 95/192 
f 97/193 98/194 99/195 
f 98/196 100/197 99/198 
f 101/199 102/200 103/201 
f 102/202 104/203 103/204 
f 101/205 105/206 95/207 
f 105/208 106/209 95/210 
f 107/211 102/212 108/213 
f 102/214 96/215 108/216 
f 109/217 110/218 111/219 
f 109/220 112/221 110/222 
f 113/223 114/224 115/225 
f 113/226 116/227 114/228 
f 117/229 118/230 119/231 
f 117/232 120/233 118/234 
f 121/235 122/236 123/237 
f 121/238 124/239 122/240 
f 113/241 125/242 123/243 
f 113/244 126/245 125/246 
f 127/247 122/248 128/249 
f 127/250 116/251 122/252 
f 129/253 130/254 131/255 
f 130/256 132/257 131/258 
f 133/259 134/260 135/261 
f 134/262 136/263 135/264 
f 137/265 138/266 139/267 
f 138/268 140/269 139/270 
f 141/271 142/272 143/273 
f 142/274 144/275 143/276 
f 141/277 145/278 135/279 
f 145/280 146/281 135/282 
f 147/283 142/284 148/285 
f 142/286 136/287 148/288 
f 149/289 150/290 151/291 
f 150/292 152/293 151/294 
f 153/295 154/296 155/297 
f 154/298 156/299 155/300 
f 157/301 158/302 159/303 
f 158/304 160/305 159/306 
f 161/307 162/308 163/309 
f 162/310 164/311 163/312 
f 161/313 165/314 155/315 
f 165/316 166/317 155/318 
f 167/319 162/320 168/321 
f 162/322 156/323 168/324 
# num_faces: 108

