# Blender v2.91.0 OBJ File: 'TestMap2.blend'
# www.blender.org
mtllib TestMap2.mtl
o Cube
v 1.000000 0.000120 2.826566
v 1.000000 -0.000120 -2.388128
v 0.980785 0.195210 2.826542
v 0.980785 0.194970 -2.388151
v 0.923880 0.382803 2.826520
v 0.923880 0.382563 -2.388174
v 0.831470 0.555690 2.826499
v 0.831470 0.555450 -2.388195
v 0.707107 0.707227 2.826481
v 0.707107 0.706987 -2.388213
v 0.555570 0.831590 2.826466
v 0.555570 0.831350 -2.388227
v 0.382683 0.924000 2.826455
v 0.382683 0.923760 -2.388239
v 0.195090 0.980905 2.826448
v 0.195090 0.980665 -2.388246
v -0.000000 1.000120 2.826446
v -0.000000 0.999880 -2.388248
v -0.195091 0.980905 2.826448
v -0.195091 0.980665 -2.388246
v -0.382684 0.923999 2.826455
v -0.382684 0.923759 -2.388239
v -0.555571 0.831589 2.826466
v -0.555571 0.831349 -2.388227
v -0.707107 0.707226 2.826481
v -0.707107 0.706986 -2.388213
v -0.831470 0.555690 2.826499
v -0.831470 0.555450 -2.388195
v -0.923880 0.382803 2.826520
v -0.923880 0.382563 -2.388174
v -0.980785 0.195209 2.826542
v -0.980785 0.194969 -2.388151
v -1.000000 0.000119 2.826566
v -1.000000 -0.000121 -2.388128
vt 0.993240 0.989696
vt 0.993273 0.945682
vt 0.638273 0.945163
vt 0.638240 0.989177
vt 0.993305 0.901668
vt 0.638305 0.901149
vt 0.993338 0.857654
vt 0.638338 0.857135
vt 0.993370 0.813640
vt 0.638370 0.813120
vt 0.993402 0.769626
vt 0.638403 0.769106
vt 0.993435 0.725612
vt 0.638435 0.725092
vt 0.993467 0.681598
vt 0.638468 0.681078
vt 0.993500 0.637584
vt 0.638500 0.637064
vt 0.993532 0.593570
vt 0.638532 0.593050
vt 0.993565 0.549555
vt 0.638565 0.549036
vt 0.993597 0.505541
vt 0.638597 0.505022
vt 0.993630 0.461527
vt 0.638630 0.461008
vt 0.993662 0.417513
vt 0.638662 0.416994
vt 0.993695 0.373499
vt 0.638695 0.372980
vt 0.993727 0.329485
vt 0.638727 0.328966
vt 0.993760 0.285471
vt 0.638760 0.284952
vt 0.074391 0.600004
vt 0.074609 -0.104222
vt 0.429609 -0.104003
vt 0.429391 0.600222
vn -0.9952 -0.0980 0.0000
vn -0.9569 -0.2903 0.0000
vn -0.8819 -0.4714 0.0000
vn -0.7730 -0.6344 0.0000
vn -0.6344 -0.7730 0.0000
vn -0.4714 -0.8819 0.0000
vn -0.2903 -0.9569 0.0000
vn -0.0980 -0.9952 0.0000
vn 0.0980 -0.9952 0.0000
vn 0.2903 -0.9569 0.0000
vn 0.4714 -0.8819 0.0000
vn 0.6344 -0.7730 0.0000
vn 0.7730 -0.6344 0.0000
vn 0.8819 -0.4714 0.0000
vn 0.9569 -0.2903 0.0000
vn 0.9952 -0.0980 0.0000
vn -0.0000 1.0000 -0.0000
usemtl Material
s off
f 1/1/1 3/2/1 4/3/1 2/4/1
f 3/2/2 5/5/2 6/6/2 4/3/2
f 5/5/3 7/7/3 8/8/3 6/6/3
f 7/7/4 9/9/4 10/10/4 8/8/4
f 9/9/5 11/11/5 12/12/5 10/10/5
f 11/11/6 13/13/6 14/14/6 12/12/6
f 13/13/7 15/15/7 16/16/7 14/14/7
f 15/15/8 17/17/8 18/18/8 16/16/8
f 17/17/9 19/19/9 20/20/9 18/18/9
f 19/19/10 21/21/10 22/22/10 20/20/10
f 21/21/11 23/23/11 24/24/11 22/22/11
f 23/23/12 25/25/12 26/26/12 24/24/12
f 25/25/13 27/27/13 28/28/13 26/26/13
f 27/27/14 29/29/14 30/30/14 28/28/14
f 29/29/15 31/31/15 32/32/15 30/30/15
f 31/31/16 33/33/16 34/34/16 32/32/16
f 2/35/17 34/36/17 33/37/17 1/38/17
