# 3ds Max Wavefront OBJ Exporter v0.97b - (c)2007 guruware
# File Created: 10.04.2019 15:59:16

newmtl Skate_Ramp_Fun_Box_01_Metal_Pipes
	Ns 66.0000
	Ni 2.0000
	d 1.0000
	Tr 0.0000
	Tf 1.0000 1.0000 1.0000 
	illum 2
	Ka 0.5880 0.5880 0.5880
	Kd 0.3922 0.3922 0.3922
	Ks 0.3300 0.3300 0.3300
	Ke 0.0000 0.0000 0.0000
